…
#### 物種數、排名

依照次數多寡採降冪排序。

``` r
dat %>% dim() %>% .[1] %>% cat("共紀錄",.,"物種\n")
```

    ## 共紀錄 169 物種

``` r
dat %>% arrange(desc(count))
```

    ## # A tibble: 169 x 2
    ##    vname      count
    ##    <chr>      <dbl>
    ##  1 玫瑰花        30
    ##  2 大花咸豐草    18
    ##  3 榕樹          17
    ##  4 向日葵        14
    ##  5 仙人掌        13
    ##  6 含羞草        12
    ##  7 蒲公英         8
    ##  8 薰衣草         8
    ##  9 九層塔         7
    ## 10 黑板樹         6
    ## # ... with 159 more rows
…
